<svg width="23" height="23" viewBox="0 0 23 23" fill="none" xmlns="http://www.w3.org/2000/svg">
<path fill-rule="evenodd" clip-rule="evenodd" d="M11.6184 2.50195C6.74373 2.50195 2.79199 6.45369 2.79199 11.3284C2.79199 16.2031 6.74373 20.1549 11.6184 20.1549C16.4932 20.1549 20.4449 16.2031 20.4449 11.3284C20.4449 6.45369 16.4932 2.50195 11.6184 2.50195ZM0.791992 11.3284C0.791992 5.34912 5.63916 0.501953 11.6184 0.501953C17.5977 0.501953 22.4449 5.34912 22.4449 11.3284C22.4449 17.3077 17.5977 22.1549 11.6184 22.1549C5.63916 22.1549 0.791992 17.3077 0.791992 11.3284ZM11.6185 6.39783C12.1707 6.39783 12.6185 6.84554 12.6185 7.39783V11.3284C12.6185 11.8807 12.1707 12.3284 11.6185 12.3284C11.0662 12.3284 10.6185 11.8807 10.6185 11.3284V7.39783C10.6185 6.84554 11.0662 6.39783 11.6185 6.39783ZM11.6185 14.259C11.0662 14.259 10.6185 14.7067 10.6185 15.259C10.6185 15.8113 11.0662 16.259 11.6185 16.259H11.6285C12.1807 16.259 12.6285 15.8113 12.6285 15.259C12.6285 14.7067 12.1807 14.259 11.6285 14.259H11.6185Z" fill="#FD6D0E"/>
</svg>
